<svg width="257" height="491" viewBox="0 0 257 491" fill="inherit" xmlns="http://www.w3.org/2000/svg">
<path d="M245.342 -6.10352e-05C251.233 -0.011061 256.017 4.75692 256.028 10.6479C256.033 13.4879 254.905 16.2129 252.894 18.2189L25.758 245.334L252.894 472.448C257.065 476.619 257.065 483.381 252.894 487.552C248.723 491.723 241.961 491.723 237.79 487.552L3.12306 252.885C-1.04094 248.72 -1.04094 241.968 3.12306 237.802L237.79 3.13593C239.79 1.12893 242.508 -6.10352e-05 245.342 -6.10352e-05Z" fill="inherit"/>
</svg>
